{
	"data": [
		{
			"id": 1373,
			"internal_id": "8326400",
			"trader_id": 34639,
			"internal_trader_id": 9000307,
			"amount": 10,
			"currency": "USD",
			"platform_pointer": "mt4_live21",
			"comment": "WD i-Withdrawal",
			"details": "",
			"created_at": "20161024T175819",
			"updated_at": "20161103T093715"
		},
		{
			"id": 1376,
			"internal_id": "8326401",
			"trader_id": 34639,
			"internal_trader_id": 9000307,
			"amount": 10,
			"currency": "USD",
			"platform_pointer": "mt4_live21",
			"comment": "WD i-Withdrawal",
			"details": "",
			"created_at": "20161024T175939",
			"updated_at": "20161103T093715"
		},
		{
			"id": 1379,
			"internal_id": "8326402",
			"trader_id": 34639,
			"internal_trader_id": 9000307,
			"amount": 10,
			"currency": "USD",
			"platform_pointer": "mt4_live21",
			"comment": "WD i-Withdrawal",
			"details": "",
			"created_at": "20161024T180102",
			"updated_at": "20161103T093715"
		},
		{
			"id": 1414,
			"internal_id": "8326417",
			"trader_id": 34639,
			"internal_trader_id": 9000307,
			"amount": 10,
			"currency": "USD",
			"platform_pointer": "mt4_live21",
			"comment": "WD i-Withdrawal",
			"details": "{\"bank_account_number\":\"gdmtest\"}",
			"created_at": "20161025T094930",
			"updated_at": "20161103T093715"
		},
		{
			"id": 31,
			"internal_id": "7625483",
			"trader_id": 34639,
			"internal_trader_id": 9000307,
			"amount": 0.01,
			"currency": "USD",
			"platform_pointer": "mt4_live21",
			"comment": "TG I-WD: 9000307",
			"details": null,
			"created_at": "20160623T083455",
			"updated_at": "20161103T093715"
		},
		{
			"id": 4013,
			"internal_id": "8326714",
			"trader_id": 34639,
			"internal_trader_id": 9000307,
			"amount": 0.01,
			"currency": "USD",
			"platform_pointer": "mt4_live21",
			"comment": "TG I-WD: 9000307",
			"details": null,
			"created_at": "20161114T121902",
			"updated_at": "20161114T121903"
		},
		{
			"id": 4017,
			"internal_id": "8326716",
			"trader_id": 34639,
			"internal_trader_id": 9000307,
			"amount": 0.01,
			"currency": "USD",
			"platform_pointer": "mt4_live21",
			"comment": "TG INT WD: To 9052716",
			"details": null,
			"created_at": "20161114T122023",
			"updated_at": "20161114T122024"
		},
		{
			"id": 4018,
			"internal_id": "8326718",
			"trader_id": 34639,
			"internal_trader_id": 9000307,
			"amount": 0.01,
			"currency": "USD",
			"platform_pointer": "mt4_live21",
			"comment": "TG WD: 9000307",
			"details": null,
			"created_at": "20161114T122205",
			"updated_at": "20161114T122206"
		},
		{
			"id": 121,
			"internal_id": "7625617",
			"trader_id": 34639,
			"internal_trader_id": 9000307,
			"amount": 23,
			"currency": "USD",
			"platform_pointer": "mt4_live21",
			"comment": "TG INT WD: To 9000308",
			"details": null,
			"created_at": "20160705T153459",
			"updated_at": "20161103T093715"
		},
		{
			"id": 1292,
			"internal_id": "8326375",
			"trader_id": 34639,
			"internal_trader_id": 9000307,
			"amount": 100,
			"currency": "USD",
			"platform_pointer": "mt4_live21",
			"comment": "WD Bank TT",
			"details": "",
			"created_at": "20161024T142625",
			"updated_at": "20161103T093715"
		}
	],
	"pagination": {
		"total_count": 80,
		"total_pages": 8,
		"current_page": 1,
		"limit": 10
	},
	"code": "a680bab3cec967580ea127682a5ceba5f9787483"
}
